kode_penanggungjawab,nama_penanggungjawab,jabatan,alamat_penanggungjawab,no_telepon_penanggungjawab
P-01,Dwicky Pramudita,Ketua,Karangsari RT 01 RW 04 Kawunganten Cilacap Jawa Tengah Indonesia,08996603414
P-02,Yosia Adi Jaya,Wakil Ketua,Solo Solo Solo Solo Solo Solo Solo Solo Solo Solo Solo Solo Solo Solo Solo Solo Solo Solo Solo Solo ,08996603423
P-03,Tjandrayana Setiawan,Sekretaris,Purworejo,08996603421
P-04,Yosafat Adi Wicaksono,Bendahara,Yogyakarta,08996603411
P-05,Erick,Humas,Yogyakarta,08996603410
P-06,Dandy,Humas,Yogyakarta,08996603401
P-07,Ferry,Humas,Yogyakarta,08996603403
P-08,Dina,Humas,Yogyakarta,08996603465
P-09,Firsty,Humas,Yogyakarta,08996603463
P-10,Johan,Humas,Yogyakarta,08996603462
P-11,Inggar,Humas,Yogyakarta,08996603452
P-12,Inge,Humas,Yogyakarta,08996603454
P-13,Mitha,Humas,Yogyakarta,08996603477
P-14,Melisa,Humas,Yogyakarta,08996603488
P-15,Monmon,Humas,Yogyakarta,08996603499
P-16,Jessica,Humas,Semarang,008996604514
