kode_toko,nama_toko,alamat_toko,no_telepon_toko,cp_toko
K-01,Canceria Corp,Kawunganten Cilacap,282611833,Dwicky
K-02,Galeria Mall,Jalan Solo No 2444 Gondokusuman Yogyakarta Indones,2827226234,Wawan
K-03,Ambarukmo Plaza Hote,Jalan Solo No 15325 Babarsari Yogyakarta Indonesia,27237532,Yosia
K-04,Jogja Tronik XT Squa,Jalan Taman Siswa No 2041 Yogyakarta Indonesia,2414312412,Yosafat
